<?xml version="1.0" encoding="UTF-8"?>
<svg width="42px" height="32px" viewBox="0 0 42 32" version="1.1" xmlns="http://www.w3.org/2000/svg" xmlns:xlink="http://www.w3.org/1999/xlink">
    <!-- Generator: Sketch 51.2 (57519) - http://www.bohemiancoding.com/sketch -->
    <title>Group</title>
    <desc>Created with Sketch.</desc>
    <defs></defs>
    <g id="symbols" stroke="none" stroke-width="1" fill="none" fill-rule="evenodd">
        <g id="mobile-header" transform="translate(-313.000000, -27.000000)" fill="#008AFC" fill-rule="nonzero">
            <g id="Group" transform="translate(313.000000, 27.000000)">
                <rect id="Rectangle-7" x="0" y="0" width="42" height="5" rx="2.5"></rect>
                <rect id="Rectangle-7-Copy" x="0" y="14" width="42" height="5" rx="2.5"></rect>
                <rect id="Rectangle-7-Copy-3" x="0" y="27" width="42" height="5" rx="2.5"></rect>
            </g>
        </g>
    </g>
</svg>