<?xml version="1.0" encoding="UTF-8"?>
<svg width="374px" height="174px" viewBox="0 0 374 174" version="1.1" xmlns="http://www.w3.org/2000/svg" xmlns:xlink="http://www.w3.org/1999/xlink">
    <!-- Generator: Sketch 51.2 (57519) - http://www.bohemiancoding.com/sketch -->
    <title>Rectangle 4 Copy 2</title>
    <desc>Created with Sketch.</desc>
    <defs>
        <linearGradient x1="50%" y1="0%" x2="50%" y2="100%" id="linearGradient-1">
            <stop stop-color="#008AFC" offset="0%"></stop>
            <stop stop-color="#6E9DFC" offset="45.4095918%"></stop>
            <stop stop-color="#BAABFC" offset="100%"></stop>
        </linearGradient>
    </defs>
    <g id="mobile" stroke="none" stroke-width="1" fill="none" fill-rule="evenodd">
        <g id="form" transform="translate(0.000000, -147.000000)" fill="url(#linearGradient-1)" fill-rule="nonzero">
            <path d="M-1,147 L374,147 L374,291.153434 C311.441676,311.051145 248.941676,321 186.5,321 C124.058324,321 61.5583235,311.051145 -1,291.153434 L-1,147 Z" id="Rectangle-4-Copy-2"></path>
        </g>
    </g>
</svg>