<?xml version="1.0" encoding="UTF-8"?>
<svg width="54px" height="46px" viewBox="0 0 54 46" version="1.1" xmlns="http://www.w3.org/2000/svg" xmlns:xlink="http://www.w3.org/1999/xlink">
    <!-- Generator: Sketch 51.2 (57519) - http://www.bohemiancoding.com/sketch -->
    <title>Combined Shape</title>
    <desc>Created with Sketch.</desc>
    <defs>
        <path d="M30.0220337,32.0710678 L30.0815703,32.1316331 L23.7781746,38.4350288 C23.3876503,38.8255531 22.7544853,38.8255531 22.363961,38.4350288 L16.0605653,32.1316331 L16.1201019,32.0710678 L10,32.0710678 C4.4771525,32.0710678 -1.10000309e-15,27.5939153 -1.77635684e-15,22.0710678 L0,10.0710678 C-6.76353751e-16,4.54822031 4.4771525,0.0710678119 10,0.0710678119 L36,0.0710678119 C41.5228475,0.0710678119 46,4.54822031 46,10.0710678 L46,22.0710678 C46,27.5939153 41.5228475,32.0710678 36,32.0710678 L30.0220337,32.0710678 Z" id="path-1"></path>
        <filter x="-15.2%" y="-12.9%" width="130.4%" height="136.2%" filterUnits="objectBoundingBox" id="filter-2">
            <feOffset dx="0" dy="2" in="SourceAlpha" result="shadowOffsetOuter1"></feOffset>
            <feGaussianBlur stdDeviation="2" in="shadowOffsetOuter1" result="shadowBlurOuter1"></feGaussianBlur>
            <feColorMatrix values="0 0 0 0 0   0 0 0 0 0   0 0 0 0 0  0 0 0 0.5 0" type="matrix" in="shadowBlurOuter1"></feColorMatrix>
        </filter>
    </defs>
    <g id="desktop" stroke="none" stroke-width="1" fill="none" fill-rule="evenodd">
        <g id="main-page-copy-6" transform="translate(-809.000000, -567.000000)">
            <g id="Group-5" transform="translate(475.000000, 569.000000)">
                <g id="Group-13" transform="translate(338.000000, 0.000000)">
                    <g id="%-box">
                        <g id="Combined-Shape">
                            <use fill="black" fill-opacity="1" filter="url(#filter-2)" xlink:href="#path-1"></use>
                            <use fill="#FFFFFF" fill-rule="evenodd" xlink:href="#path-1"></use>
                        </g>
                    </g>
                </g>
            </g>
        </g>
    </g>
</svg>