<?xml version="1.0" encoding="UTF-8"?>
<svg width="26px" height="25px" viewBox="0 0 26 25" version="1.1" xmlns="http://www.w3.org/2000/svg" xmlns:xlink="http://www.w3.org/1999/xlink">
    <!-- Generator: Sketch 51 (57462) - http://www.bohemiancoding.com/sketch -->
    <title>✕</title>
    <desc>Created with Sketch.</desc>
    <defs></defs>
    <g id="symbols" stroke="none" stroke-width="1" fill="none" fill-rule="evenodd" font-family="ZapfDingbatsITC, Zapf Dingbats" font-size="36" font-weight="normal" line-spacing="24">
        <g id="✕-copy" transform="translate(-1.000000, 2.000000)" fill="#fff">
            <text id="✕">
                <tspan x="0" y="22.6972656">✕</tspan>
            </text>
        </g>
    </g>
</svg>