<?xml version="1.0" encoding="UTF-8"?>
<svg width="90px" height="90px" viewBox="0 0 90 90" version="1.1" xmlns="http://www.w3.org/2000/svg" xmlns:xlink="http://www.w3.org/1999/xlink">
    <!-- Generator: Sketch 51.2 (57519) - http://www.bohemiancoding.com/sketch -->
    <title>medium</title>
    <desc>Created with Sketch.</desc>
    <defs>
        <linearGradient x1="50%" y1="0%" x2="50%" y2="100%" id="linearGradient-1">
            <stop stop-color="#008AFC" offset="0%"></stop>
            <stop stop-color="#6E9DFC" offset="45.4095918%"></stop>
            <stop stop-color="#BAABFC" offset="100%"></stop>
        </linearGradient>
        <polygon id="path-2" points="0 11 4 11 4 19 7.4995 19 7.4995 11 11.5 11 5.75 0"></polygon>
        <polygon id="path-4" points="0 0 1.815 6.441 3.629 0"></polygon>
        <polygon id="path-6" points="0.1825 6.652 4.278 1.3595 0.913 0"></polygon>
        <polygon id="path-8" points="0.066 5.4055 6.4905 3.531 4.5675 0.453"></polygon>
        <polygon id="path-10" points="0 0 1.815 6.441 3.629 0"></polygon>
        <polygon id="path-12" points="0.1825 6.652 4.278 1.3595 0.913 0"></polygon>
        <polygon id="path-14" points="0.066 5.4055 6.4905 3.531 4.5675 0.453"></polygon>
    </defs>
    <g id="medium" stroke="none" stroke-width="1" fill="none" fill-rule="evenodd">
        <circle id="Oval-2-Copy-4" fill="url(#linearGradient-1)" fill-rule="nonzero" cx="45" cy="45" r="45"></circle>
        <g id="Group-13" transform="translate(18.000000, 18.000000)">
            <g id="Group-129" transform="translate(6.000000, 9.666500)" stroke="#FFFFFF">
                <path d="M0.7062,4.85105 C0.4577,5.26805 0.3247,5.68855 0.2732,6.10305 C0.8002,6.25755 1.3427,6.50705 1.9042,6.85455 C1.8357,5.96205 2.0857,5.03055 2.9202,4.21055 C3.2432,3.90255 3.5617,3.66755 3.8762,3.48255 C2.6672,3.29355 1.6037,3.73755 0.7062,4.85105" id="Fill-123"></path>
                <path d="M18.6845,9.27685 C18.848,8.71285 19.151,8.24735 19.5755,7.87635 C16.544,4.92835 13.6975,2.26535 12.5535,1.50235 C10.749,0.29885 9.344,0.02385 7.7825,1.51435 C7.229,2.05785 7.015,2.65285 6.9885,3.23385 C7.566,3.44535 8.1155,3.76485 8.633,4.10985 C10.418,5.29985 16.07,10.82235 20.3605,15.10585 C19.9125,14.40435 19.575,13.86285 19.4595,13.64735 C19.4095,13.55785 18.1235,11.20985 18.6845,9.27685" id="Fill-125"></path>
                <path d="M37.01625,19.69725 C35.32875,16.40275 31.39925,9.60475 29.73875,6.82125 C29.15475,5.84225 27.36825,3.52125 24.85225,4.89175 C23.84525,5.44075 23.59075,6.38625 23.63975,7.31975 C24.63475,7.80025 25.46225,8.68975 26.04625,9.66825 C27.68275,12.41225 31.63275,19.23925 33.34675,22.58675 C35.05025,25.91325 36.39225,28.93925 35.55575,32.28275 C35.23475,33.56425 34.52725,35.66375 33.06525,37.72375 C33.60325,37.31175 34.15375,36.86725 34.72725,36.36225 C37.29025,34.10475 38.58925,31.16625 39.16475,28.86925 C39.96475,25.67425 38.51475,22.62425 37.01625,19.69725" id="Fill-127"></path>
            </g>
            <g id="Group-132" transform="translate(42.500000, 0.166500)">
                <mask id="mask-3" fill="white">
                    <use xlink:href="#path-2"></use>
                </mask>
                <use id="Clip-131" stroke="#FFFFFF" xlink:href="#path-2"></use>
                <polygon id="Fill-130" stroke="#FFFFFF" mask="url(#mask-3)" points="-2.5 21.5 14 21.5 14 -2.5 -2.5 -2.5"></polygon>
            </g>
            <g id="Group-135" transform="translate(20.500000, 3.166500)">
                <mask id="mask-5" fill="white">
                    <use xlink:href="#path-4"></use>
                </mask>
                <use id="Clip-134" stroke="#FFFFFF" xlink:href="#path-4"></use>
                <polygon id="Fill-133" stroke="#FFFFFF" mask="url(#mask-5)" points="-2.5 8.9415 6.1295 8.9415 6.1295 -2.5 -2.5 -2.5"></polygon>
            </g>
            <g id="Group-138" transform="translate(26.500000, 3.666500)">
                <mask id="mask-7" fill="white">
                    <use xlink:href="#path-6"></use>
                </mask>
                <use id="Clip-137" stroke="#FFFFFF" xlink:href="#path-6"></use>
                <polygon id="Fill-136" stroke="#FFFFFF" mask="url(#mask-7)" points="-0.4686 -3.2544 7.5324 -0.0219 3.2464 10.5861 -4.7546 7.3536"></polygon>
            </g>
            <g id="Group-141" transform="translate(29.500000, 6.166500)">
                <mask id="mask-9" fill="white">
                    <use xlink:href="#path-8"></use>
                </mask>
                <use id="Clip-140" stroke="#FFFFFF" xlink:href="#path-8"></use>
                <polygon id="Fill-139" stroke="#FFFFFF" mask="url(#mask-9)" points="5.3627 -2.9917 9.9357 4.3263 0.2327 10.3893 -4.3403 3.0713"></polygon>
            </g>
            <g id="Group-150" transform="translate(0.000000, 9.666500)" stroke="#FFFFFF">
                <path d="M34.34855,16.6157 L31.80955,12.2192 C31.14105,11.1842 30.60405,10.3352 30.45705,10.0617 C30.45655,10.0607 30.40705,9.9687 30.33605,9.8202 C29.65105,8.9397 28.44455,7.9262 26.87405,8.7822 C26.79305,8.8262 26.72205,8.8762 26.65305,8.9282 C26.39455,9.1242 26.21905,9.3737 26.12655,9.6902 C25.80455,10.7892 26.48705,12.4022 26.77705,12.9307 C27.15205,13.6302 30.42155,18.6047 31.64955,20.4632 C31.86255,20.7857 31.79605,21.2172 31.49505,21.4602 C31.19405,21.7032 30.75855,21.6772 30.48755,21.4012 C30.34905,21.2597 16.61005,7.2307 13.80105,5.3577 C13.69705,5.2887 13.60455,5.2367 13.50605,5.1762 C13.08655,4.9162 12.70955,4.7307 12.36605,4.6197 C11.45255,4.3242 10.74705,4.5402 9.96355,5.2882 C8.45755,6.7687 10.41405,8.9237 10.49805,9.0147 C10.50005,9.0177 10.50105,9.0212 10.50305,9.0232 L20.44655,18.5427 C20.60055,18.6897 20.67805,18.8872 20.67805,19.0847 C20.67805,19.2712 20.60905,19.4577 20.47005,19.6027 C20.32255,19.7567 20.12555,19.8342 19.92805,19.8342 C19.74155,19.8342 19.55505,19.7652 19.40955,19.6262 L9.09105,9.7482 C9.07155,9.7297 9.05705,9.7077 9.03955,9.6877 C8.12905,8.8082 7.27505,8.1822 6.49755,7.8107 C5.91905,7.5342 5.38105,7.3947 4.90055,7.4177 C4.19255,7.4512 3.56655,7.8092 2.98805,8.5107 C1.96005,10.3172 3.62305,12.3022 4.54655,13.2032 C4.85905,13.5087 5.08755,13.6907 5.09655,13.6977 C5.10555,13.7047 5.10905,13.7147 5.11755,13.7217 L16.44255,23.3887 C16.61655,23.5372 16.70605,23.7482 16.70605,23.9597 C16.70605,24.1322 16.64705,24.3052 16.52655,24.4462 C16.37805,24.6202 16.16755,24.7092 15.95555,24.7092 C15.78355,24.7092 15.61005,24.6502 15.46905,24.5302 L5.17755,15.7452 L4.17005,14.8857 C3.32855,14.3587 2.55805,14.4167 1.81605,15.0692 C1.40105,15.4342 1.11055,15.9167 0.95255,16.5032 C0.52205,18.0982 3.00005,20.6867 4.07005,21.6257 C4.11455,21.6647 4.16105,21.7057 4.20005,21.7387 C4.20205,21.7402 4.20255,21.7422 4.20405,21.7437 L12.81005,28.9212 C12.98805,29.0697 13.08005,29.2827 13.07955,29.4982 C13.07955,29.6672 13.02255,29.8372 12.90555,29.9777 C12.75755,30.1552 12.54405,30.2472 12.32905,30.2472 C12.16005,30.2472 11.98955,30.1897 11.84905,30.0732 L6.07455,25.2567 L3.28855,22.9337 C2.91805,22.7227 2.58255,22.6152 2.27705,22.6152 C2.10105,22.6152 1.93505,22.6497 1.77705,22.7192 C1.06655,23.0322 0.62455,23.9752 0.51355,24.4962 C0.30305,25.4822 1.14505,26.7912 1.93055,27.6127 C2.91205,28.6397 7.89055,33.5392 12.68155,37.5732 C13.23855,38.0422 13.78105,38.5162 14.30805,38.9767 C15.41655,39.9452 16.46355,40.8602 17.40555,41.5127 C19.18205,42.7432 21.11355,43.4322 23.48305,43.6807 C26.19555,43.9652 29.43005,43.9447 33.96205,40.5962 C34.58155,40.1382 35.22455,39.6217 35.89505,39.0312 C38.60155,36.6472 39.69155,33.5517 40.10055,31.9182 C40.81105,29.0802 39.57505,26.3227 38.01205,23.2702 C37.16055,21.6077 35.74955,19.0742 34.34855,16.6157" id="Fill-142"></path>
                <path d="M6.7062,4.85105 C6.4577,5.26805 6.3247,5.68855 6.2732,6.10305 C6.8002,6.25755 7.3427,6.50705 7.9042,6.85455 C7.8357,5.96205 8.0857,5.03055 8.9202,4.21055 C9.2432,3.90255 9.5617,3.66755 9.8762,3.48255 C8.6672,3.29355 7.6037,3.73755 6.7062,4.85105" id="Fill-144"></path>
                <path d="M24.6845,9.27685 C24.848,8.71285 25.151,8.24735 25.5755,7.87635 C22.544,4.92835 19.6975,2.26535 18.5535,1.50235 C16.749,0.29885 15.344,0.02385 13.7825,1.51435 C13.229,2.05785 13.015,2.65285 12.9885,3.23385 C13.566,3.44535 14.1155,3.76485 14.633,4.10985 C16.418,5.29985 22.07,10.82235 26.3605,15.10585 C25.9125,14.40435 25.575,13.86285 25.4595,13.64735 C25.4095,13.55785 24.1235,11.20985 24.6845,9.27685" id="Fill-146"></path>
                <path d="M43.01625,19.69725 C41.32875,16.40275 37.39925,9.60475 35.73875,6.82125 C35.15475,5.84225 33.36825,3.52125 30.85225,4.89175 C29.84525,5.44075 29.59075,6.38625 29.63975,7.31975 C30.63475,7.80025 31.46225,8.68975 32.04625,9.66825 C33.68275,12.41225 37.63275,19.23925 39.34675,22.58675 C41.05025,25.91325 42.39225,28.93925 41.55575,32.28275 C41.23475,33.56425 40.52725,35.66375 39.06525,37.72375 C39.60325,37.31175 40.15375,36.86725 40.72725,36.36225 C43.29025,34.10475 44.58925,31.16625 45.16475,28.86925 C45.96475,25.67425 44.51475,22.62425 43.01625,19.69725" id="Fill-148"></path>
            </g>
            <g id="Group-153" transform="translate(20.500000, 3.166500)">
                <mask id="mask-11" fill="white">
                    <use xlink:href="#path-10"></use>
                </mask>
                <use id="Clip-152" stroke="#FFFFFF" xlink:href="#path-10"></use>
                <polygon id="Fill-151" stroke="#FFFFFF" mask="url(#mask-11)" points="-2.5 8.9415 6.1295 8.9415 6.1295 -2.5 -2.5 -2.5"></polygon>
            </g>
            <g id="Group-156" transform="translate(26.500000, 3.666500)">
                <mask id="mask-13" fill="white">
                    <use xlink:href="#path-12"></use>
                </mask>
                <use id="Clip-155" stroke="#FFFFFF" xlink:href="#path-12"></use>
                <polygon id="Fill-154" stroke="#FFFFFF" mask="url(#mask-13)" points="-0.4686 -3.2544 7.5324 -0.0219 3.2464 10.5861 -4.7546 7.3536"></polygon>
            </g>
            <g id="Group-159" transform="translate(29.500000, 6.166500)">
                <mask id="mask-15" fill="white">
                    <use xlink:href="#path-14"></use>
                </mask>
                <use id="Clip-158" stroke="#FFFFFF" xlink:href="#path-14"></use>
                <polygon id="Fill-157" stroke="#FFFFFF" mask="url(#mask-15)" points="5.3627 -2.9917 9.9357 4.3263 0.2327 10.3893 -4.3403 3.0713"></polygon>
            </g>
            <path d="M34.34855,26.2822 L31.80955,21.8857 C31.14105,20.8507 30.60405,20.0017 30.45705,19.7282 C30.45655,19.7272 30.40705,19.6352 30.33605,19.4867 C29.65105,18.6062 28.44455,17.5927 26.87405,18.4487 C26.79305,18.4927 26.72205,18.5427 26.65305,18.5947 C26.39455,18.7907 26.21905,19.0402 26.12655,19.3567 C25.80455,20.4557 26.48705,22.0687 26.77705,22.5972 C27.15205,23.2967 30.42155,28.2712 31.64955,30.1297 C31.86255,30.4522 31.79605,30.8837 31.49505,31.1267 C31.19405,31.3697 30.75855,31.3437 30.48755,31.0677 C30.34905,30.9262 16.61005,16.8972 13.80105,15.0242 C13.69705,14.9552 13.60455,14.9032 13.50605,14.8427 C13.08655,14.5827 12.70955,14.3972 12.36605,14.2862 C11.45255,13.9907 10.74705,14.2067 9.96355,14.9547 C8.45755,16.4352 10.41405,18.5902 10.49805,18.6812 C10.50005,18.6842 10.50105,18.6877 10.50305,18.6897 L20.44655,28.2092 C20.60055,28.3562 20.67805,28.5537 20.67805,28.7512 C20.67805,28.9377 20.60905,29.1242 20.47005,29.2692 C20.32255,29.4232 20.12555,29.5007 19.92805,29.5007 C19.74155,29.5007 19.55505,29.4317 19.40955,29.2927 L9.09105,19.4147 C9.07155,19.3962 9.05705,19.3742 9.03955,19.3542 C8.12905,18.4747 7.27505,17.8487 6.49755,17.4772 C5.91905,17.2007 5.38105,17.0612 4.90055,17.0842 C4.19255,17.1177 3.56655,17.4757 2.98805,18.1772 C1.96005,19.9837 3.62305,21.9687 4.54655,22.8697 C4.85905,23.1752 5.08755,23.3572 5.09655,23.3642 C5.10555,23.3712 5.10905,23.3812 5.11755,23.3882 L16.44255,33.0552 C16.61655,33.2037 16.70605,33.4147 16.70605,33.6262 C16.70605,33.7987 16.64705,33.9717 16.52655,34.1127 C16.37805,34.2867 16.16755,34.3757 15.95555,34.3757 C15.78355,34.3757 15.61005,34.3167 15.46905,34.1967 L5.17755,25.4117 L4.17005,24.5522 C3.32855,24.0252 2.55805,24.0832 1.81605,24.7357 C1.40105,25.1007 1.11055,25.5832 0.95255,26.1697 C0.52205,27.7647 3.00005,30.3532 4.07005,31.2922 C4.11455,31.3312 4.16105,31.3722 4.20005,31.4052 C4.20205,31.4067 4.20255,31.4087 4.20405,31.4102 L12.81005,38.5877 C12.98805,38.7362 13.08005,38.9492 13.07955,39.1647 C13.07955,39.3337 13.02255,39.5037 12.90555,39.6442 C12.75755,39.8217 12.54405,39.9137 12.32905,39.9137 C12.16005,39.9137 11.98955,39.8562 11.84905,39.7397 L6.07455,34.9232 L3.28855,32.6002 C2.91805,32.3892 2.58255,32.2817 2.27705,32.2817 C2.10105,32.2817 1.93505,32.3162 1.77705,32.3857 C1.06655,32.6987 0.62455,33.6417 0.51355,34.1627 C0.30305,35.1487 1.14505,36.4577 1.93055,37.2792 C2.91205,38.3062 7.89055,43.2057 12.68155,47.2397 C13.23855,47.7087 13.78105,48.1827 14.30805,48.6432 C15.41655,49.6117 16.46355,50.5267 17.40555,51.1792 C19.18205,52.4097 21.11355,53.0987 23.48305,53.3472 C26.19555,53.6317 29.43005,53.6112 33.96205,50.2627 C34.58155,49.8047 35.22455,49.2882 35.89505,48.6977 C38.60155,46.3137 39.69155,43.2182 40.10055,41.5847 C40.81105,38.7467 39.57505,35.9892 38.01205,32.9367 C37.16055,31.2742 35.74955,28.7407 34.34855,26.2822" id="Fill-160" stroke="#FFFFFF"></path>
        </g>
    </g>
</svg>