<?xml version="1.0" encoding="UTF-8"?>
<svg width="100px" height="100px" viewBox="0 0 100 100" version="1.1" xmlns="http://www.w3.org/2000/svg" xmlns:xlink="http://www.w3.org/1999/xlink">
    <!-- Generator: Sketch 51.2 (57519) - http://www.bohemiancoding.com/sketch -->
    <title>four</title>
    <desc>Created with Sketch.</desc>
    <defs>
        <linearGradient x1="50%" y1="0%" x2="50%" y2="100%" id="linearGradient-1">
            <stop stop-color="#008AFC" offset="0%"></stop>
            <stop stop-color="#6E9DFC" offset="45.4095918%"></stop>
            <stop stop-color="#BAABFC" offset="100%"></stop>
        </linearGradient>
    </defs>
    <g id="four" stroke="none" stroke-width="1" fill="none" fill-rule="evenodd">
        <rect id="Rectangle-4-Copy-3" stroke="url(#linearGradient-1)" stroke-width="1.35135135" fill="#FFFFFF" fill-rule="nonzero" x="0.675675676" y="0.675675676" width="98.6486486" height="98.6486486" rx="49.3243243"></rect>
        <g id="Group-2" transform="translate(26.000000, 20.000000)" stroke="url(#linearGradient-1)" stroke-width="1.35135135">
            <g id="Group">
                <path d="M17.5570097,35.1501932 C27.1015665,49.3109586 39.7509892,57.1107572 45.8096284,52.5710853 C51.8682677,48.0331639 49.0423417,32.8737933 39.4977849,18.7139032 C29.953228,4.55313781 17.3038054,-3.24666075 11.2451661,1.29213586 C5.18652683,5.83093246 8.01245284,20.9894279 17.5570097,35.1501932 Z" id="Stroke-9"></path>
                <path d="M20.4122784,32.938596 C28.7309273,45.4426161 38.5412028,53.2055453 43.3643056,49.5453219 C48.1874085,45.8850986 45.0653444,32.929615 36.7466955,20.4264664 C28.4280466,7.92244626 18.4797452,0.700759815 13.6574583,4.36098315 C8.83435544,8.02120649 12.0936296,20.4354474 20.4122784,32.938596 Z" id="Stroke-11"></path>
                <path d="M23.0149116,56.0317009 C25.2289239,57.579874 27.1685986,58.5658921 29.1276691,59.4315365 C31.197022,60.3459108 34.7729992,59.7242807 36.8099342,58.1941203 L43.8926953,53.6126921 C35.8324195,54.8177067 26.9638221,48.508243 17.2869032,34.684301 C13.4219138,29.1629787 11.563873,24.1124475 9.99762556,19.5686874 C7.30596119,11.7600376 6.95724801,6.29898299 8.95148604,3.18552367 C4.41675056,6.65735543 1.82740439,9.07162405 1.18344752,10.4283295 C0.21751223,12.4633878 -0.303100061,16.9370408 0.30818509,20.5880939 C1.09437158,25.283789 2.8205298,29.2938727 4.35243566,32.7706519 C6.25230995,37.0825642 8.36620724,40.4028627 9.80248651,42.5970986 C11.6161295,45.3678415 13.6746548,47.9067256 15.9780625,50.2137507 C17.4015255,51.6394492 19.7471419,53.578766 23.0149116,56.0317009 Z" id="Stroke-17"></path>
            </g>
        </g>
        <path d="M48,28.151576 C42.6666667,25.9530386 40,26.9025132 40,31" id="Path-4" stroke="url(#linearGradient-1)" stroke-width="1.35135135"></path>
    </g>
</svg>