<?xml version="1.0" encoding="UTF-8"?>
<svg width="100px" height="100px" viewBox="0 0 100 100" version="1.1" xmlns="http://www.w3.org/2000/svg" xmlns:xlink="http://www.w3.org/1999/xlink">
    <!-- Generator: Sketch 51.2 (57519) - http://www.bohemiancoding.com/sketch -->
    <title>three</title>
    <desc>Created with Sketch.</desc>
    <defs>
        <linearGradient x1="50%" y1="0%" x2="50%" y2="100%" id="linearGradient-1">
            <stop stop-color="#008AFC" offset="0%"></stop>
            <stop stop-color="#6E9DFC" offset="45.4095918%"></stop>
            <stop stop-color="#BAABFC" offset="100%"></stop>
        </linearGradient>
    </defs>
    <g id="three" stroke="none" stroke-width="1" fill="none" fill-rule="evenodd">
        <rect id="Rectangle-4-Copy-2" stroke="url(#linearGradient-1)" stroke-width="1.35135135" fill="#FFFFFF" fill-rule="nonzero" x="0.675675676" y="0.675675676" width="98.6486486" height="98.6486486" rx="49.3243243"></rect>
        <g id="Group" transform="translate(21.000000, 20.000000)">
            <path d="M26.2888397,10.0756377 C26.2888397,8.69884562 26.1611596,8.15444051 24.817496,7.96909343 C24.750978,5.48893335 22.7546066,3.4684008 20.2826314,3.36367554 C19.6906212,1.42293366 17.8780057,0 15.7494298,0 L13.6200223,0 C11.468165,0 9.64141446,1.45285516 9.06852819,3.42518085 C6.83186047,3.80086194 5.11237018,5.75739572 5.11237018,8.09542866 C5.11237018,8.38383869 5.13980886,8.66559951 5.18969736,8.93904879 C4.08549857,9.80843466 3.37209302,11.1549023 3.37209302,12.6609512 C3.37209302,15.2657842 5.50482638,17.3976912 8.110669,17.3976912 L24.1714399,17.3976912 C25.7728608,17.3976912 25.5643813,16.7446957 26.4232949,15.5195764" id="Stroke-67" stroke="url(#linearGradient-1)" stroke-width="1.35135135"></path>
            <path d="M51.9302326,26.7116236 C51.4532617,26.0229326 51.0906783,25.474717 50.2255998,25.3553867 C50.1827742,23.7586082 48.8974688,22.4577475 47.30596,22.3903232 C46.9248115,21.1408333 45.7578121,20.2247191 44.3873907,20.2247191 L43.016434,20.2247191 C41.6310237,20.2247191 40.4549238,21.1600974 40.0860878,22.4299216 C38.6460747,22.6717928 37.5390312,23.9314499 37.5390312,25.436724 C37.5390312,25.6224083 37.5566968,25.8038118 37.588816,25.9798641 C36.8779099,26.5395928 36.4186047,27.4064765 36.4186047,28.3761021 C36.4186047,30.0531476 37.7917026,31.4257135 39.4693981,31.4257135 L49.8096556,31.4257135 C50.8406835,31.4257135 50.8638144,31.4516418 51.9302326,30.2165442 C52.641178,29.3931459 52.641178,28.224839 51.9302326,26.7116236 Z" id="Stroke-67-Copy" stroke="url(#linearGradient-1)" stroke-width="1.35135135"></path>
            <polygon id="Fill-65" stroke="url(#linearGradient-1)" stroke-width="1.35135135" stroke-linecap="round" stroke-linejoin="round" points="48.6325005 4.38239195 29.6744186 4.38239195 29.6744186 15.5834285 48.6325005 15.5834285 48.6325005 10.7558866"></polygon>
            <path d="M26.3023256,29.0369835 L26.3023256,5.06125844 C26.3023256,4.68849462 26.6042095,4.3861509 26.9769729,4.38558355 L29.0739089,4.38239195 L29.0739089,28.292568" id="Stroke-71" stroke="url(#linearGradient-1)" stroke-width="1.35135135"></path>
            <path d="M41.3401157,47.5499589 L45.1947859,41.4398216 C45.3938925,41.1242127 45.8111518,41.0297689 46.1267607,41.2288754 C46.2119145,41.2825959 46.2839864,41.3546678 46.3377069,41.4398216 L51.7254277,49.9800369 L57.0316308,58.389863 C57.2307572,58.7054593 57.1363396,59.1227246 56.8207433,59.321851 C56.7128152,59.3899485 56.5878086,59.4260889 56.460193,59.4260889 L45.7662464,59.4260889 L35.0722998,59.4260889" id="Stroke-55-Copy" stroke="url(#linearGradient-1)" stroke-width="1.35135135"></path>
            <path d="M28.4957906,26.6083609 L38.4506067,42.3879968 L48.3245423,58.0372436 C48.5236688,58.35284 48.4292512,58.7701052 48.1136548,58.9692316 C48.0057267,59.0373292 47.8807202,59.0734695 47.7531046,59.0734695 L27.9243301,59.0734695 L8.09555562,59.0734695 C7.72239025,59.0734695 7.41987994,58.7709592 7.41987994,58.3977938 C7.41987994,58.2701782 7.45602031,58.1451717 7.52411784,58.0372436 L17.3980535,42.3879968 L27.3528696,26.6083609 C27.5519762,26.292752 27.9692355,26.1983082 28.2848444,26.3974147 C28.3699982,26.4511353 28.44207,26.5232071 28.4957906,26.6083609 Z" id="Stroke-55-Copy-2"></path>
            <path d="M15.1745205,46.5114241 L17.3980535,43.0621542 L27.3528696,27.2825182 C27.5519762,26.9669093 27.9692355,26.8724655 28.2848444,27.071572 C28.3699982,27.1252926 28.44207,27.1973644 28.4957906,27.2825182 L38.4506067,43.0621542 L48.3067879,58.3516192 C48.5089752,58.6652635 48.4186214,59.0834275 48.1049772,59.2856147 C47.9958374,59.3559704 47.8687363,59.3933873 47.7388848,59.3933873 L27.9243301,59.3933873 L8.1097754,59.3933873" id="Stroke-55-Copy-3" stroke="url(#linearGradient-1)" stroke-width="1.35135135"></path>
            <path d="M11.9423581,41.4398216 L17.3300788,49.9800369 L22.636282,58.389863 C22.8354084,58.7054593 22.7409908,59.1227246 22.4253944,59.321851 C22.3174663,59.3899485 22.1924598,59.4260889 22.0648442,59.4260889 L11.3708976,59.4260889 L0.676950968,59.4260889 C0.303785596,59.4260889 0.00127529195,59.1235786 0.00127529195,58.7504132 C0.00127529195,58.6227976 0.0374156598,58.4977911 0.105513189,58.389863 L5.41171631,49.9800369 L10.7994371,41.4398216 C10.9985436,41.1242127 11.4158029,41.0297689 11.7314118,41.2288754 C11.8165657,41.2825959 11.8886375,41.3546678 11.9423581,41.4398216 Z" id="Stroke-55" stroke="url(#linearGradient-1)" stroke-width="1.35135135"></path>
        </g>
        <path d="" id="Path-2" stroke="#979797" stroke-width="0.675675676" fill-rule="nonzero"></path>
    </g>
</svg>